first_name,last_name,passport_number,seat_number,email_address,phone_number
Alan,Murphy,PC16225345,03A,alanmurphy@gmail.com,0865456725
Abbey,Kelly,PC98774563,07D,abbeykelly@gmail.com,0867384458
Aaron,O'Sullivan,PC88577463,07F,aaronosullivan@gmail.com,0867382425
Aisling,Walsh,PC16625374,18C,aislingwalsh@gmail.com,0863968724
Abrahem,Smith,PC38854624,24B,abrahemsmith@gmail.com,0861257388
Achmed,O'Brien,PC83647591,14E,achmedobrien@gmail.com,0874172398
Afric,Byrne,PC83546576,13D,africbyrne@gmail.com,0837862577
Alison,Ryan,PC98712264,13E,alisonryan@gmail.com,0861643729
Archie,O'Connor,PC76354234,06C,archieoconnor@gmail.com,0866124597
Anthony,O'Neill,PC98264537,22B,anthonyoneill@live.com,0869645721